3_Sequential/Memory/RAM/Single_port_RAM/sync_single_port_ram.vcd
$date
	Sat Mar  7 10:42:22 2026
$end
$version
	Icarus Verilog
$end
$timescale
	1s
$end
$scope module tb_sync_single_port_ram $end
$var wire 8 ! data_out [7:0] $end
$var parameter 32 " addrr $end
$var parameter 32 # depth $end
$var parameter 32 $ width $end
$var reg 6 % addr [5:0] $end
$var reg 1 & clk $end
$var reg 8 ' data_in [7:0] $end
$var reg 1 ( en $end
$scope module uut $end
$var wire 6 ) addr [5:0] $end
$var wire 1 & clk $end
$var wire 8 * data_in [7:0] $end
$var wire 1 ( en $end
$var parameter 32 + addrr $end
$var parameter 32 , depth $end
$var parameter 32 - width $end
$var reg 8 . data_out [7:0] $end
$upscope $end
$upscope $end
$enddefinitions $end
$comment Show the parameter values. $end
$dumpall
b1000 -
b1000000 ,
b110 +
b1000 $
b1000000 #
b110 "
$end
#0
$dumpvars
bx .
b10001010 *
b101010 )
x(
b10001010 '
0&
b101010 %
bx !
$end
#5
1&
#10
0&
1(
b10101000 '
b10101000 *
b0 %
b0 )
#15
1&
#20
0&
b10101001 '
b10101001 *
b1 %
b1 )
#25
1&
#30
0&
b10101010 '
b10101010 *
b11 %
b11 )
#35
1&
#40
0&
b10101011 '
b10101011 *
b101 %
b101 )
#45
1&
#50
0&
b10101100 '
b10101100 *
b1001 %
b1001 )
#55
1&
#60
0&
b10101101 '
b10101101 *
b10001 %
b10001 )
#65
1&
#70
0&
b10101110 '
b10101110 *
b100001 %
b100001 )
#75
1&
#80
0&
b10101111 '
b10101111 *
b110001 %
b110001 )
#85
1&
#90
0&
b110011 '
b110011 *
b0 %
b0 )
#95
1&
#100
0&
0(
b10001010 '
b10001010 *
#105
b110011 !
b110011 .
1&
#110
0&
b10011010 '
b10011010 *
b1 %
b1 )
#115
b10101001 !
b10101001 .
1&
#120
0&
b10101010 '
b10101010 *
b11 %
b11 )
#125
b10101010 !
b10101010 .
1&
#130
0&
b10111010 '
b10111010 *
b101 %
b101 )
#135
b10101011 !
b10101011 .
1&
#140
0&
b11001010 '
b11001010 *
b1001 %
b1001 )
#145
b10101100 !
b10101100 .
1&
#150
0&
b11011010 '
b11011010 *
b10001 %
b10001 )
#155
b10101101 !
b10101101 .
1&
#160
0&
b11101010 '
b11101010 *
b100001 %
b100001 )
#165
b10101110 !
b10101110 .
1&
#170
0&
b110001 %
b110001 )
#175
b10101111 !
b10101111 .
1&
