FIFO/Async_FIFO/async_fifo.vcd
$date
	Mon Mar  9 09:56:45 2026
$end
$version
	Icarus Verilog
$end
$timescale
	1s
$end
$scope module tb_async_fifo $end
$var wire 1 ! full $end
$var wire 1 " empty $end
$var wire 8 # data_out [7:0] $end
$var parameter 32 $ depth $end
$var parameter 32 % width $end
$var reg 8 & data_in [7:0] $end
$var reg 1 ' rclk $end
$var reg 1 ( rd_en $end
$var reg 1 ) rrst $end
$var reg 1 * wclk $end
$var reg 1 + wrst $end
$var reg 1 , wrt_en $end
$scope module uut $end
$var wire 8 - data_in [7:0] $end
$var wire 8 . data_out [7:0] $end
$var wire 1 " empty $end
$var wire 1 ! full $end
$var wire 1 ' rclk $end
$var wire 1 ( rd_en $end
$var wire 1 ) rrst $end
$var wire 1 * wclk $end
$var wire 1 + wrst $end
$var wire 1 , wrt_en $end
$var wire 4 / wptr [3:0] $end
$var wire 4 0 w_sync [3:0] $end
$var wire 4 1 w_gray [3:0] $end
$var wire 1 2 tfull $end
$var wire 1 3 tempty $end
$var wire 4 4 rptr [3:0] $end
$var wire 4 5 r_sync [3:0] $end
$var wire 4 6 r_gray [3:0] $end
$var wire 8 7 d_out [7:0] $end
$var parameter 32 8 depth $end
$var parameter 33 9 ptr $end
$var parameter 32 : width $end
$scope module m1 $end
$var wire 8 ; data_in [7:0] $end
$var wire 1 ' rclk $end
$var wire 1 ( rd_en $end
$var wire 1 * wclk $end
$var wire 1 , wrt_en $end
$var wire 4 < wptr [3:0] $end
$var wire 4 = rptr [3:0] $end
$var wire 1 2 full $end
$var wire 1 3 empty $end
$var parameter 32 > depth $end
$var parameter 32 ? width $end
$var reg 8 @ data_out [7:0] $end
$upscope $end
$scope module r1 $end
$var wire 1 ' rclk $end
$var wire 1 ( rd_en $end
$var wire 4 A rptr_gray_nxt [3:0] $end
$var wire 1 ) rrst $end
$var wire 4 B wptr_sync [3:0] $end
$var wire 1 C t_empty $end
$var wire 4 D rptr_nxt [3:0] $end
$var parameter 33 E width $end
$var reg 1 3 rempty $end
$var reg 4 F rptr [3:0] $end
$var reg 4 G rptr_gray [3:0] $end
$upscope $end
$scope module s1 $end
$var wire 1 ' clk $end
$var wire 1 ) rst $end
$var wire 4 H ptr [3:0] $end
$var parameter 33 I width $end
$var reg 4 J out [3:0] $end
$var reg 4 K q [3:0] $end
$upscope $end
$scope module s2 $end
$var wire 1 * clk $end
$var wire 4 L ptr [3:0] $end
$var wire 1 + rst $end
$var parameter 33 M width $end
$var reg 4 N out [3:0] $end
$var reg 4 O q [3:0] $end
$upscope $end
$scope module w1 $end
$var wire 4 P rptr_sync [3:0] $end
$var wire 1 * wclk $end
$var wire 4 Q wptr_gray_nxt [3:0] $end
$var wire 1 + wrst $end
$var wire 1 , wrt_en $end
$var wire 4 R wptr_nxt [3:0] $end
$var wire 1 S t_full $end
$var parameter 33 T width $end
$var reg 1 2 wfull $end
$var reg 4 U wptr [3:0] $end
$var reg 4 V wptr_gray [3:0] $end
$upscope $end
$upscope $end
$upscope $end
$enddefinitions $end
$comment Show the parameter values. $end
$dumpall
b100 T
b100 M
b100 I
b100 E
b1000 ?
b1000 >
b1000 :
b100 9
b1000 8
b1000 %
b1000 $
$end
#0
$dumpvars
b0 V
b0 U
0S
b1 R
b1 Q
b0 P
b0 O
b0 N
b0 L
b0 K
b0 J
b0 H
b0 G
b0 F
b0 D
1C
b0 B
b0 A
bx @
b0 =
b0 <
b10001010 ;
bx 7
b0 6
b0 5
b0 4
13
02
b0 1
b0 0
b0 /
bx .
b10001010 -
1,
1+
0*
1)
0(
0'
b10001010 &
bx #
1"
0!
$end
#5
1*
#10
0*
0)
0+
1'
#15
b11 Q
b1 1
b1 H
b1 V
b10 R
b1 /
b1 <
b1 U
1*
#20
0*
b10101000 &
b10101000 -
b10101000 ;
0'
#25
b10 Q
b11 1
b11 H
b11 V
b11 R
b10 /
b10 <
b10 U
1*
#30
b11 K
0*
b10101001 &
b10101001 -
b10101001 ;
1'
#35
b110 Q
b10 1
b10 H
b10 V
b100 R
b11 /
b11 <
b11 U
1*
#40
0*
b10101010 &
b10101010 -
b10101010 ;
0'
#45
b111 Q
b110 1
b110 H
b110 V
b101 R
b100 /
b100 <
b100 U
1*
#50
0C
b11 0
b11 B
b11 J
b110 K
0*
b10101011 &
b10101011 -
b10101011 ;
1'
#55
b101 Q
b111 1
b111 H
b111 V
b110 R
b101 /
b101 <
b101 U
1*
#60
0*
b10101100 &
b10101100 -
b10101100 ;
0'
#65
b100 Q
b101 1
b101 H
b101 V
b111 R
b110 /
b110 <
b110 U
1*
#70
0"
03
b110 0
b110 B
b110 J
b101 K
0*
b10101101 &
b10101101 -
b10101101 ;
1'
#75
1S
b1100 Q
b100 1
b100 H
b100 V
b1000 R
b111 /
b111 <
b111 U
1*
#80
0*
b10101110 &
b10101110 -
b10101110 ;
0'
#85
1S
b1100 Q
1!
12
b1100 1
b1100 H
b1100 V
b1000 R
b1000 /
b1000 <
b1000 U
1*
#90
b101 0
b101 B
b101 J
b1100 K
0*
b10101111 &
b10101111 -
b10101111 ;
1'
#95
1*
#100
b1 A
b1 D
0*
1(
0,
b10001010 &
b10001010 -
b10001010 ;
0'
#105
1*
#110
b11 A
b10001010 #
b10001010 .
b10001010 7
b10001010 @
b1 6
b1 G
b1 L
b10 D
b1 4
b1 =
b1 F
b1100 0
b1100 B
b1100 J
0*
b10011010 &
b10011010 -
b10011010 ;
1'
#115
b1 O
1*
#120
0*
b10101010 &
b10101010 -
b10101010 ;
0'
#125
0S
b1 5
b1 N
b1 P
1*
#130
b10 A
b10101000 #
b10101000 .
b10101000 7
b10101000 @
b11 6
b11 G
b11 L
b11 D
b10 4
b10 =
b10 F
0*
b10111010 &
b10111010 -
b10111010 ;
1'
#135
0!
02
b11 O
1*
#140
0*
b11001010 &
b11001010 -
b11001010 ;
0'
#145
b11 5
b11 N
b11 P
1*
#150
b110 A
b10101001 #
b10101001 .
b10101001 7
b10101001 @
b10 6
b10 G
b10 L
b100 D
b11 4
b11 =
b11 F
0*
b11011010 &
b11011010 -
b11011010 ;
1'
#155
b10 O
1*
#160
0*
b11101010 &
b11101010 -
b11101010 ;
0'
#165
b10 5
b10 N
b10 P
1*
#170
b111 A
b10101010 #
b10101010 .
b10101010 7
b10101010 @
b110 6
b110 G
b110 L
b101 D
b100 4
b100 =
b100 F
0*
1'
#175
b110 O
1*
#180
0*
b11011010 &
b11011010 -
b11011010 ;
0'
#185
b110 5
b110 N
b110 P
1*
#190
b101 A
b10101011 #
b10101011 .
b10101011 7
b10101011 @
b111 6
b111 G
b111 L
b110 D
b101 4
b101 =
b101 F
0*
b11101010 &
b11101010 -
b11101010 ;
1'
#195
b111 O
1*
#200
0*
0'
#205
b111 5
b111 N
b111 P
1*
#210
b100 A
b10101100 #
b10101100 .
b10101100 7
b10101100 @
b101 6
b101 G
b101 L
b111 D
b110 4
b110 =
b110 F
0*
b11011010 &
b11011010 -
b11011010 ;
1'
#215
b101 O
1*
#220
0*
b11101010 &
b11101010 -
b11101010 ;
0'
#225
b101 5
b101 N
b101 P
1*
#230
1C
b1100 A
b10101101 #
b10101101 .
b10101101 7
b10101101 @
b100 6
b100 G
b100 L
b1000 D
b111 4
b111 =
b111 F
0*
1'
#235
b100 O
1*
#240
0*
b11011010 &
b11011010 -
b11011010 ;
0'
#245
b100 5
b100 N
b100 P
1*
#250
1C
b1100 A
b10101110 #
b10101110 .
b10101110 7
b10101110 @
1"
13
b1100 6
b1100 G
b1100 L
b1000 D
b1000 4
b1000 =
b1000 F
0*
b11101010 &
b11101010 -
b11101010 ;
1'
#255
b1100 O
1*
#260
0*
0'
#265
b1100 5
b1100 N
b1100 P
1*
