FIFO/Async_FIFO/async_fifo.vcd
$date
	Sat Jun 13 13:02:30 2026
$end
$version
	Icarus Verilog
$end
$timescale
	1s
$end
$scope module tb_async_fifo $end
$var wire 1 ! full $end
$var wire 1 " empty $end
$var wire 8 # data_out [7:0] $end
$var parameter 32 $ depth $end
$var parameter 32 % width $end
$var reg 8 & data_in [7:0] $end
$var reg 1 ' rclk $end
$var reg 1 ( rd_en $end
$var reg 1 ) rrst $end
$var reg 1 * wclk $end
$var reg 1 + wrst $end
$var reg 1 , wrt_en $end
$scope module uut $end
$var wire 8 - data_in [7:0] $end
$var wire 8 . data_out [7:0] $end
$var wire 1 " empty $end
$var wire 1 ! full $end
$var wire 1 ' rclk $end
$var wire 1 ( rd_en $end
$var wire 1 ) rrst $end
$var wire 1 * wclk $end
$var wire 1 + wrst $end
$var wire 1 , wrt_en $end
$var wire 4 / wptr [3:0] $end
$var wire 4 0 w_sync [3:0] $end
$var wire 4 1 w_gray [3:0] $end
$var wire 1 2 tfull $end
$var wire 1 3 tempty $end
$var wire 4 4 rptr [3:0] $end
$var wire 4 5 r_sync [3:0] $end
$var wire 4 6 r_gray [3:0] $end
$var wire 8 7 d_out [7:0] $end
$var parameter 32 8 depth $end
$var parameter 33 9 ptr $end
$var parameter 32 : width $end
$scope module m1 $end
$var wire 8 ; data_in [7:0] $end
$var wire 1 ' rclk $end
$var wire 1 ( rd_en $end
$var wire 1 * wclk $end
$var wire 1 , wrt_en $end
$var wire 4 < wptr [3:0] $end
$var wire 4 = rptr [3:0] $end
$var wire 1 2 full $end
$var wire 1 3 empty $end
$var parameter 32 > depth $end
$var parameter 32 ? width $end
$var reg 8 @ data_out [7:0] $end
$upscope $end
$scope module r1 $end
$var wire 1 ' rclk $end
$var wire 1 ( rd_en $end
$var wire 4 A rptr_gray_nxt [3:0] $end
$var wire 1 ) rrst $end
$var wire 4 B wptr_sync [3:0] $end
$var wire 1 C t_empty $end
$var wire 4 D rptr_nxt [3:0] $end
$var parameter 33 E width $end
$var reg 1 3 rempty $end
$var reg 4 F rptr [3:0] $end
$var reg 4 G rptr_gray [3:0] $end
$upscope $end
$scope module s1 $end
$var wire 1 ' clk $end
$var wire 1 ) rst $end
$var wire 4 H ptr [3:0] $end
$var parameter 33 I width $end
$var reg 4 J out [3:0] $end
$var reg 4 K q [3:0] $end
$upscope $end
$scope module s2 $end
$var wire 1 * clk $end
$var wire 4 L ptr [3:0] $end
$var wire 1 + rst $end
$var parameter 33 M width $end
$var reg 4 N out [3:0] $end
$var reg 4 O q [3:0] $end
$upscope $end
$scope module w1 $end
$var wire 4 P rptr_sync [3:0] $end
$var wire 1 * wclk $end
$var wire 4 Q wptr_gray_nxt [3:0] $end
$var wire 1 + wrst $end
$var wire 1 , wrt_en $end
$var wire 4 R wptr_nxt [3:0] $end
$var wire 1 S t_full $end
$var parameter 33 T width $end
$var reg 1 2 wfull $end
$var reg 4 U wptr [3:0] $end
$var reg 4 V wptr_gray [3:0] $end
$upscope $end
$upscope $end
$scope task read_data $end
$upscope $end
$scope task write_data $end
$var reg 8 W data_to_send [7:0] $end
$upscope $end
$upscope $end
$enddefinitions $end
$comment Show the parameter values. $end
$dumpall
b100 T
b100 M
b100 I
b100 E
b1000 ?
b1000 >
b1000 :
b100 9
b1000 8
b1000 %
b1000 $
$end
#0
$dumpvars
bx W
b0 V
b0 U
0S
b0 R
b0 Q
b0 P
b0 O
b0 N
b0 L
b0 K
b0 J
b0 H
b0 G
b0 F
b0 D
1C
b0 B
b0 A
bx @
b0 =
b0 <
b0 ;
bx 7
b0 6
b0 5
b0 4
13
02
b0 1
b0 0
b0 /
bx .
b0 -
0,
1+
0*
1)
0(
0'
b0 &
bx #
1"
0!
$end
#5
1*
#10
0*
#12
1'
#15
1*
#20
0*
#24
0'
#25
1*
#30
0*
#35
0+
1*
#36
0)
1'
#40
0*
#45
1*
#48
0'
#50
0*
#55
1*
#56
b10101000 W
#60
0*
1'
#65
b1 Q
b1 R
b10101000 &
b10101000 -
b10101000 ;
1,
1*
#70
0*
#72
0'
#75
b1 1
b1 H
b1 V
b1 /
b1 <
b1 U
b1 Q
b1 R
b10101001 W
0,
1*
#80
0*
#84
b1 K
1'
#85
b11 Q
b10 R
b10101001 &
b10101001 -
b10101001 ;
1,
1*
#90
0*
#95
b11 1
b11 H
b11 V
b10 /
b10 <
b10 U
b11 Q
b10 R
b10101010 W
0,
1*
#96
0'
#100
0*
#105
b10 Q
b11 R
b10101010 &
b10101010 -
b10101010 ;
1,
1*
#108
0C
b1 0
b1 B
b1 J
b11 K
1'
#110
0*
#115
b10 1
b10 H
b10 V
b11 /
b11 <
b11 U
b10 Q
b11 R
b10101011 W
0,
1*
#120
0*
0'
#125
b110 Q
b100 R
b10101011 &
b10101011 -
b10101011 ;
1,
1*
#130
0*
#132
0"
03
b11 0
b11 B
b11 J
b10 K
1'
#135
b110 1
b110 H
b110 V
b100 /
b100 <
b100 U
b110 Q
b100 R
b10101100 W
0,
1*
#140
0*
#144
0'
#145
b111 Q
b101 R
b10101100 &
b10101100 -
b10101100 ;
1,
1*
#150
0*
#155
b111 1
b111 H
b111 V
b101 /
b101 <
b101 U
b111 Q
b101 R
b10101101 W
0,
1*
#156
b10 0
b10 B
b10 J
b111 K
1'
#160
0*
#165
b101 Q
b110 R
b10101101 &
b10101101 -
b10101101 ;
1,
1*
#168
0'
#170
0*
#175
b101 1
b101 H
b101 V
b110 /
b110 <
b110 U
b101 Q
b110 R
b10101110 W
0,
1*
#180
b111 0
b111 B
b111 J
b101 K
0*
1'
#185
b100 Q
b111 R
b10101110 &
b10101110 -
b10101110 ;
1,
1*
#190
0*
#192
0'
#195
b100 1
b100 H
b100 V
b111 /
b111 <
b111 U
b100 Q
b111 R
b10101111 W
0,
1*
#200
0*
#204
b101 0
b101 B
b101 J
b100 K
1'
#205
1S
b1100 Q
b1000 R
b10101111 &
b10101111 -
b10101111 ;
1,
1*
#210
0*
#215
1!
12
b1100 1
b1100 H
b1100 V
b1000 /
b1000 <
b1000 U
1S
b1100 Q
b1000 R
b11111111 W
0,
1*
#216
0'
#220
0*
#225
1*
#228
b100 0
b100 B
b100 J
b1100 K
1'
#230
0*
#235
1*
#240
0*
0'
#245
1*
#250
0*
#252
b1100 0
b1100 B
b1100 J
1'
#255
1*
#260
0*
#264
0'
#265
1*
#270
0*
#275
1*
#276
1'
#280
0*
#285
1*
#288
0'
#290
0*
#295
1*
#300
b10101000 #
b10101000 .
b10101000 7
b10101000 @
b1 A
b1 D
1(
0*
1'
#305
1*
#310
0*
#312
0'
#315
1*
#320
0*
#324
b1 6
b1 G
b1 L
b1 4
b1 =
b1 F
b1 A
b1 D
0(
1'
#325
b1 O
1*
#330
0*
#335
0S
b1 5
b1 N
b1 P
1*
#336
0'
#340
0*
#345
0!
02
1*
#348
b10101001 #
b10101001 .
b10101001 7
b10101001 @
b11 A
b10 D
1(
1'
#350
0*
#355
1*
#360
0*
0'
#365
1*
#370
0*
#372
b11 6
b11 G
b11 L
b10 4
b10 =
b10 F
b11 A
b10 D
0(
1'
#375
b11 O
1*
#380
0*
#384
0'
#385
b11 5
b11 N
b11 P
1*
#390
0*
#395
1*
#396
b10101010 #
b10101010 .
b10101010 7
b10101010 @
b10 A
b11 D
1(
1'
#400
0*
#405
1*
#408
0'
#410
0*
#415
1*
#420
b10 6
b10 G
b10 L
b11 4
b11 =
b11 F
b10 A
b11 D
0(
0*
1'
#425
b10 O
1*
#430
0*
#432
0'
#435
b10 5
b10 N
b10 P
1*
#440
0*
#444
b10101011 #
b10101011 .
b10101011 7
b10101011 @
b110 A
b100 D
1(
1'
#445
1*
#450
0*
#455
1*
#456
0'
#460
0*
#465
1*
#468
b110 6
b110 G
b110 L
b100 4
b100 =
b100 F
b110 A
b100 D
0(
1'
#470
0*
#475
b110 O
1*
#480
0*
0'
#485
b110 5
b110 N
b110 P
1*
#490
0*
#492
b10101100 #
b10101100 .
b10101100 7
b10101100 @
b111 A
b101 D
1(
1'
#495
1*
#500
0*
#504
0'
#505
1*
#510
0*
#515
1*
#516
b111 6
b111 G
b111 L
b101 4
b101 =
b101 F
b111 A
b101 D
0(
1'
#520
0*
#525
b111 O
1*
#528
0'
#530
0*
#535
b111 5
b111 N
b111 P
1*
#540
b10101101 #
b10101101 .
b10101101 7
b10101101 @
b101 A
b110 D
1(
0*
1'
#545
1*
#550
0*
#552
0'
#555
1*
#560
0*
#564
b101 6
b101 G
b101 L
b110 4
b110 =
b110 F
b101 A
b110 D
0(
1'
#565
b101 O
1*
#570
0*
#575
b101 5
b101 N
b101 P
1*
#576
0'
#580
0*
#585
1*
#588
b10101110 #
b10101110 .
b10101110 7
b10101110 @
b100 A
b111 D
1(
1'
#590
0*
#595
1*
#600
0*
0'
#605
1*
#610
0*
#612
b100 6
b100 G
b100 L
b111 4
b111 =
b111 F
b100 A
b111 D
0(
1'
#615
b100 O
1*
#620
0*
#624
0'
#625
b100 5
b100 N
b100 P
1*
#630
0*
#635
1*
#636
b10101111 #
b10101111 .
b10101111 7
b10101111 @
1C
b1100 A
b1000 D
1(
1'
#640
0*
#645
1*
#648
0'
#650
0*
#655
1*
#660
1"
13
b1100 6
b1100 G
b1100 L
b1000 4
b1000 =
b1000 F
1C
b1100 A
b1000 D
0(
0*
1'
#665
b1100 O
1*
#670
0*
#672
0'
#675
b1100 5
b1100 N
b1100 P
1*
